<?xml version="1.0" encoding="UTF-8" standalone="no"?>
<!-- Created with Inkscape (http://www.inkscape.org/) -->

<svg
   xmlns:dc="http://purl.org/dc/elements/1.1/"
   xmlns:cc="http://creativecommons.org/ns#"
   xmlns:rdf="http://www.w3.org/1999/02/22-rdf-syntax-ns#"
   xmlns:svg="http://www.w3.org/2000/svg"
   xmlns="http://www.w3.org/2000/svg"
   xmlns:sodipodi="http://sodipodi.sourceforge.net/DTD/sodipodi-0.dtd"
   xmlns:inkscape="http://www.inkscape.org/namespaces/inkscape"
   width="397.49957mm"
   height="153.6353mm"
   viewBox="0 0 397.49958 153.6353"
   version="1.1"
   id="svg8"
   inkscape:version="0.92.3 (2405546, 2018-03-11)"
   sodipodi:docname="power-stencil-entity-creation.svg">
  <title
     id="title1457">PowerStencil entity creation flow description</title>
  <defs
     id="defs2">
    <marker
       inkscape:stockid="Arrow1Send"
       orient="auto"
       refY="0"
       refX="0"
       id="marker1186"
       style="overflow:visible"
       inkscape:isstock="true">
      <path
         id="path1184"
         d="M 0,0 5,-5 -12.5,0 5,5 Z"
         style="fill:#4d4d4d;fill-opacity:1;fill-rule:evenodd;stroke:#4d4d4d;stroke-width:1.00000003pt;stroke-opacity:1"
         transform="matrix(-0.2,0,0,-0.2,-1.2,0)"
         inkscape:connector-curvature="0" />
    </marker>
    <inkscape:path-effect
       effect="bspline"
       id="path-effect1111"
       is_visible="true"
       weight="33.333333"
       steps="2"
       helper_size="0"
       apply_no_weight="true"
       apply_with_weight="true"
       only_selected="false" />
    <marker
       inkscape:isstock="true"
       style="overflow:visible"
       id="marker1231"
       refX="0"
       refY="0"
       orient="auto"
       inkscape:stockid="Arrow1Send"
       inkscape:collect="always">
      <path
         inkscape:connector-curvature="0"
         transform="matrix(-0.2,0,0,-0.2,-1.2,0)"
         style="fill:#4d4d4d;fill-opacity:1;fill-rule:evenodd;stroke:#4d4d4d;stroke-width:1.00000003pt;stroke-opacity:1"
         d="M 0,0 5,-5 -12.5,0 5,5 Z"
         id="path1229" />
    </marker>
    <inkscape:path-effect
       only_selected="false"
       apply_with_weight="true"
       apply_no_weight="true"
       helper_size="0"
       steps="2"
       weight="33.333333"
       is_visible="true"
       id="path-effect1227"
       effect="bspline" />
    <marker
       inkscape:stockid="Arrow1Send"
       orient="auto"
       refY="0"
       refX="0"
       id="Arrow1Send"
       style="overflow:visible"
       inkscape:isstock="true"
       inkscape:collect="always">
      <path
         id="path1098"
         d="M 0,0 5,-5 -12.5,0 5,5 Z"
         style="fill:#4d4d4d;fill-opacity:1;fill-rule:evenodd;stroke:#4d4d4d;stroke-width:1.00000003pt;stroke-opacity:1"
         transform="matrix(-0.2,0,0,-0.2,-1.2,0)"
         inkscape:connector-curvature="0" />
    </marker>
    <marker
       inkscape:stockid="Arrow1Lend"
       orient="auto"
       refY="0"
       refX="0"
       id="Arrow1Lend"
       style="overflow:visible"
       inkscape:isstock="true">
      <path
         id="path1086"
         d="M 0,0 5,-5 -12.5,0 5,5 Z"
         style="fill:#333333;fill-opacity:1;fill-rule:evenodd;stroke:#4d4d4d;stroke-width:1.00000003pt;stroke-opacity:1"
         transform="matrix(-0.8,0,0,-0.8,-10,0)"
         inkscape:connector-curvature="0" />
    </marker>
    <inkscape:path-effect
       effect="bspline"
       id="path-effect1081"
       is_visible="true"
       weight="33.333333"
       steps="2"
       helper_size="0"
       apply_no_weight="true"
       apply_with_weight="true"
       only_selected="false" />
    <marker
       inkscape:isstock="true"
       style="overflow:visible"
       id="marker1231-8"
       refX="0"
       refY="0"
       orient="auto"
       inkscape:stockid="Arrow1Send">
      <path
         inkscape:connector-curvature="0"
         transform="matrix(-0.2,0,0,-0.2,-1.2,0)"
         style="fill:#4d4d4d;fill-opacity:1;fill-rule:evenodd;stroke:#4d4d4d;stroke-width:1.00000003pt;stroke-opacity:1"
         d="M 0,0 5,-5 -12.5,0 5,5 Z"
         id="path1229-7" />
    </marker>
    <inkscape:path-effect
       only_selected="false"
       apply_with_weight="true"
       apply_no_weight="true"
       helper_size="0"
       steps="2"
       weight="33.333333"
       is_visible="true"
       id="path-effect1227-4"
       effect="bspline" />
  </defs>
  <sodipodi:namedview
     id="base"
     pagecolor="#ffffff"
     bordercolor="#666666"
     borderopacity="1.0"
     inkscape:pageopacity="0.0"
     inkscape:pageshadow="2"
     inkscape:zoom="0.7"
     inkscape:cx="691.24662"
     inkscape:cy="306.60718"
     inkscape:document-units="mm"
     inkscape:current-layer="layer1"
     showgrid="false"
     inkscape:window-width="1920"
     inkscape:window-height="1141"
     inkscape:window-x="0"
     inkscape:window-y="31"
     inkscape:window-maximized="1"
     fit-margin-top="10"
     fit-margin-left="10"
     fit-margin-right="10"
     fit-margin-bottom="10" />
  <metadata
     id="metadata5">
    <rdf:RDF>
      <cc:Work
         rdf:about="">
        <dc:format>image/svg+xml</dc:format>
        <dc:type
           rdf:resource="http://purl.org/dc/dcmitype/StillImage" />
        <dc:title>PowerStencil entity creation flow description</dc:title>
        <dc:creator>
          <cc:Agent>
            <dc:title>L.Briais</dc:title>
          </cc:Agent>
        </dc:creator>
      </cc:Work>
    </rdf:RDF>
  </metadata>
  <g
     inkscape:label="Calque 1"
     inkscape:groupmode="layer"
     id="layer1"
     transform="translate(113.48204,-90.846423)">
    <path
       style="opacity:1;vector-effect:none;fill:#4d4d4d;fill-opacity:1;fill-rule:evenodd;stroke:#4d4d4d;stroke-width:1.88228047;stroke-linecap:butt;stroke-linejoin:miter;stroke-miterlimit:4;stroke-dasharray:none;stroke-dashoffset:0;stroke-opacity:1;marker-end:url(#marker1186)"
       d="m -48.999241,171.83879 c 60.854543,0 121.708712,0 182.562501,0"
       id="path1109"
       inkscape:connector-curvature="0"
       inkscape:path-effect="#path-effect1111"
       inkscape:original-d="m -48.999241,171.83879 c 60.854543,-2.6e-4 121.708712,-2.6e-4 182.562501,0" />
    <rect
       style="color:#000000;clip-rule:nonzero;display:inline;overflow:visible;visibility:visible;opacity:1;isolation:auto;mix-blend-mode:normal;color-interpolation:sRGB;color-interpolation-filters:linearRGB;solid-color:#000000;solid-opacity:1;vector-effect:none;fill:#a7c2db;fill-opacity:0;fill-rule:evenodd;stroke:#b3b3b3;stroke-width:1.29813564;stroke-linecap:butt;stroke-linejoin:miter;stroke-miterlimit:4;stroke-dasharray:5.19254323, 5.19254323;stroke-dashoffset:0;stroke-opacity:1;color-rendering:auto;image-rendering:auto;shape-rendering:auto;text-rendering:auto;enable-background:accumulate"
       id="rect927"
       width="376.20145"
       height="132.33716"
       x="-102.83297"
       y="101.49549"
       ry="5.5368247" />
    <path
       inkscape:original-d="m 66.030921,191.14748 c 19.950452,-6.45185 39.900939,-12.90345 59.851439,-19.35479"
       inkscape:path-effect="#path-effect1227"
       inkscape:connector-curvature="0"
       id="path1225"
       d="M 66.030921,191.14748 C 85.98145,184.69587 105.93194,178.24427 125.88236,171.79269"
       style="fill:#4d4d4d;fill-rule:evenodd;stroke:#4d4d4d;stroke-width:1.84002388;stroke-linecap:butt;stroke-linejoin:miter;stroke-miterlimit:4;stroke-dasharray:none;stroke-opacity:1;marker-end:url(#marker1231)" />
    <path
       style="fill:#4d4d4d;fill-rule:evenodd;stroke:#4d4d4d;stroke-width:1.88874269;stroke-linecap:butt;stroke-linejoin:miter;stroke-miterlimit:4;stroke-dasharray:none;stroke-opacity:1;marker-end:url(#Arrow1Send)"
       d="m 65.996854,151.12108 c 19.962565,6.79369 39.925066,13.58735 59.887526,20.381"
       id="path1079"
       inkscape:connector-curvature="0"
       inkscape:path-effect="#path-effect1081"
       inkscape:original-d="m 65.996854,151.12108 c 19.962479,6.79394 39.924986,13.5876 59.887526,20.381" />
    <text
       xml:space="preserve"
       style="font-style:normal;font-variant:normal;font-weight:bold;font-stretch:normal;font-size:4.63020849px;line-height:125%;font-family:sans-serif;-inkscape-font-specification:'sans-serif, Bold';font-variant-ligatures:normal;font-variant-caps:normal;font-variant-numeric:normal;font-feature-settings:normal;text-align:start;letter-spacing:0px;word-spacing:0px;writing-mode:lr-tb;text-anchor:start;fill:#999999;fill-opacity:1;stroke:none;stroke-width:0.26458332px;stroke-linecap:butt;stroke-linejoin:miter;stroke-opacity:1"
       x="-92.926559"
       y="110.55138"
       id="text1006-9"><tspan
         sodipodi:role="line"
         x="-92.926559"
         y="110.55138"
         style="font-style:normal;font-variant:normal;font-weight:bold;font-stretch:normal;font-size:4.63020849px;font-family:sans-serif;-inkscape-font-specification:'sans-serif, Bold';font-variant-ligatures:normal;font-variant-caps:normal;font-variant-numeric:normal;font-feature-settings:normal;text-align:start;writing-mode:lr-tb;text-anchor:start;fill:#999999;stroke-width:0.26458332px"
         id="tspan1026">Entity creation process (power_stencil create)</tspan></text>
    <flowRoot
       transform="matrix(0.26458333,0,0,0.26458333,-29.067848,94.304276)"
       style="font-style:normal;font-weight:normal;font-size:17.5px;line-height:125%;font-family:sans-serif;letter-spacing:0px;word-spacing:0px;fill:#000000;fill-opacity:1;stroke:none;stroke-width:1px;stroke-linecap:butt;stroke-linejoin:miter;stroke-opacity:1"
       id="flowRoot943"
       xml:space="preserve"><flowRegion
         id="flowRegion945"><rect
           y="246.12077"
           x="47.142857"
           height="421.42856"
           width="457.14285"
           id="rect947" /></flowRegion><flowPara
         id="flowPara949" /></flowRoot>    <g
       id="g947">
      <g
         id="g935">
        <rect
           style="color:#000000;clip-rule:nonzero;display:inline;overflow:visible;visibility:visible;opacity:1;isolation:auto;mix-blend-mode:normal;color-interpolation:sRGB;color-interpolation-filters:linearRGB;solid-color:#000000;solid-opacity:1;vector-effect:none;fill:#a7c2db;fill-opacity:1;fill-rule:evenodd;stroke:#000000;stroke-width:0.7077052;stroke-linecap:butt;stroke-linejoin:miter;stroke-miterlimit:4;stroke-dasharray:none;stroke-dashoffset:0;stroke-opacity:1;color-rendering:auto;image-rendering:auto;shape-rendering:auto;text-rendering:auto;enable-background:accumulate"
           id="rect1062"
           width="87.226822"
           height="21.836939"
           x="6.0404544"
           y="117.57639"
           ry="1.7865629" />
        <text
           xml:space="preserve"
           style="font-style:normal;font-variant:normal;font-weight:bold;font-stretch:normal;font-size:4.63020849px;line-height:125%;font-family:sans-serif;-inkscape-font-specification:'sans-serif, Bold';font-variant-ligatures:normal;font-variant-caps:normal;font-variant-numeric:normal;font-feature-settings:normal;text-align:center;letter-spacing:0px;word-spacing:0px;writing-mode:lr-tb;text-anchor:middle;fill:#000000;fill-opacity:1;stroke:none;stroke-width:0.26458332px;stroke-linecap:butt;stroke-linejoin:miter;stroke-opacity:1"
           x="49.530651"
           y="126.86028"
           id="text819"><tspan
             sodipodi:role="line"
             x="49.530651"
             y="126.86028"
             style="font-style:normal;font-variant:normal;font-weight:bold;font-stretch:normal;font-size:4.63020849px;font-family:sans-serif;-inkscape-font-specification:'sans-serif, Bold';font-variant-ligatures:normal;font-variant-caps:normal;font-variant-numeric:normal;font-feature-settings:normal;text-align:center;writing-mode:lr-tb;text-anchor:middle;stroke-width:0.26458332px"
             id="tspan865">System</tspan><tspan
             id="tspan951"
             sodipodi:role="line"
             x="49.530651"
             y="132.64804"
             style="font-style:normal;font-variant:normal;font-weight:bold;font-stretch:normal;font-size:4.63020849px;font-family:sans-serif;-inkscape-font-specification:'sans-serif, Bold';font-variant-ligatures:normal;font-variant-caps:normal;font-variant-numeric:normal;font-feature-settings:normal;text-align:center;writing-mode:lr-tb;text-anchor:middle;stroke-width:0.26458332px">Entity Types</tspan></text>
      </g>
      <g
         transform="translate(5.5839621,6.8035714)"
         id="g1080">
        <rect
           ry="1.7865629"
           y="132.60976"
           x="0.45649999"
           height="21.836939"
           width="87.226822"
           id="rect1060"
           style="color:#000000;clip-rule:nonzero;display:inline;overflow:visible;visibility:visible;opacity:1;isolation:auto;mix-blend-mode:normal;color-interpolation:sRGB;color-interpolation-filters:linearRGB;solid-color:#000000;solid-opacity:1;vector-effect:none;fill:#c8e1c8;fill-opacity:1;fill-rule:evenodd;stroke:#000000;stroke-width:0.7077052;stroke-linecap:butt;stroke-linejoin:miter;stroke-miterlimit:4;stroke-dasharray:none;stroke-dashoffset:0;stroke-opacity:1;color-rendering:auto;image-rendering:auto;shape-rendering:auto;text-rendering:auto;enable-background:accumulate" />
        <text
           xml:space="preserve"
           style="font-style:normal;font-weight:normal;font-size:4.63020849px;line-height:125%;font-family:sans-serif;letter-spacing:0px;word-spacing:0px;fill:#000000;fill-opacity:1;stroke:none;stroke-width:0.26458332px;stroke-linecap:butt;stroke-linejoin:miter;stroke-opacity:1"
           x="6.5692902"
           y="138.95341"
           id="text819-4"><tspan
             sodipodi:role="line"
             x="6.5692902"
             y="138.95341"
             style="stroke-width:0.26458332px"
             id="tspan865-8">templates-templates stored</tspan><tspan
             id="tspan951-5"
             sodipodi:role="line"
             x="6.5692902"
             y="144.74118"
             style="stroke-width:0.26458332px">in PowerStencil Gem</tspan></text>
      </g>
    </g>
    <g
       id="g1039"
       transform="translate(-98.27381,-31.074538)">
      <g
         id="g1026">
        <rect
           ry="1.7865629"
           y="202.91333"
           x="6.126143"
           height="21.836939"
           width="87.226822"
           id="rect933"
           style="color:#000000;clip-rule:nonzero;display:inline;overflow:visible;visibility:visible;opacity:1;isolation:auto;mix-blend-mode:normal;color-interpolation:sRGB;color-interpolation-filters:linearRGB;solid-color:#000000;solid-opacity:1;vector-effect:none;fill:#c8e1c8;fill-opacity:1;fill-rule:evenodd;stroke:#000000;stroke-width:0.7077052;stroke-linecap:butt;stroke-linejoin:miter;stroke-miterlimit:4;stroke-dasharray:none;stroke-dashoffset:0;stroke-opacity:1;color-rendering:auto;image-rendering:auto;shape-rendering:auto;text-rendering:auto;enable-background:accumulate" />
        <text
           id="text937"
           y="209.25699"
           x="12.238936"
           style="font-style:normal;font-weight:normal;font-size:4.63020849px;line-height:125%;font-family:sans-serif;letter-spacing:0px;word-spacing:0px;fill:#000000;fill-opacity:1;stroke:none;stroke-width:0.26458332px;stroke-linecap:butt;stroke-linejoin:miter;stroke-opacity:1"
           xml:space="preserve"><tspan
             id="tspan941"
             style="stroke-width:0.26458332px"
             y="209.25699"
             x="12.238936"
             sodipodi:role="line">templates-templates</tspan><tspan
             id="tspan1007"
             style="stroke-width:0.26458332px"
             y="215.04475"
             x="12.238936"
             sodipodi:role="line">within project in </tspan><tspan
             id="tspan1009"
             style="stroke-width:0.26458332px"
             y="220.8325"
             x="12.238936"
             sodipodi:role="line">.ps_project/templates-templates</tspan></text>
      </g>
      <g
         id="g1019">
        <rect
           style="color:#000000;clip-rule:nonzero;display:inline;overflow:visible;visibility:visible;opacity:1;isolation:auto;mix-blend-mode:normal;color-interpolation:sRGB;color-interpolation-filters:linearRGB;solid-color:#000000;solid-opacity:1;vector-effect:none;fill:#a7c2db;fill-opacity:1;fill-rule:evenodd;stroke:#000000;stroke-width:0.7077052;stroke-linecap:butt;stroke-linejoin:miter;stroke-miterlimit:4;stroke-dasharray:none;stroke-dashoffset:0;stroke-opacity:1;color-rendering:auto;image-rendering:auto;shape-rendering:auto;text-rendering:auto;enable-background:accumulate"
           id="rect1058"
           width="87.226822"
           height="21.836939"
           x="6.126143"
           y="181.07639"
           ry="1.7865629" />
        <text
           id="text1017"
           y="190.36026"
           x="49.678513"
           style="font-style:normal;font-variant:normal;font-weight:bold;font-stretch:normal;font-size:4.63020849px;line-height:125%;font-family:sans-serif;-inkscape-font-specification:'sans-serif, Bold';font-variant-ligatures:normal;font-variant-caps:normal;font-variant-numeric:normal;font-feature-settings:normal;text-align:center;letter-spacing:0px;word-spacing:0px;writing-mode:lr-tb;text-anchor:middle;fill:#000000;fill-opacity:1;stroke:none;stroke-width:0.26458332px;stroke-linecap:butt;stroke-linejoin:miter;stroke-opacity:1"
           xml:space="preserve"><tspan
             id="tspan1013"
             style="font-style:normal;font-variant:normal;font-weight:bold;font-stretch:normal;font-size:4.63020849px;font-family:sans-serif;-inkscape-font-specification:'sans-serif, Bold';font-variant-ligatures:normal;font-variant-caps:normal;font-variant-numeric:normal;font-feature-settings:normal;text-align:center;writing-mode:lr-tb;text-anchor:middle;stroke-width:0.26458332px"
             y="190.36026"
             x="49.678513"
             sodipodi:role="line">Custom Project</tspan><tspan
             style="font-style:normal;font-variant:normal;font-weight:bold;font-stretch:normal;font-size:4.63020849px;font-family:sans-serif;-inkscape-font-specification:'sans-serif, Bold';font-variant-ligatures:normal;font-variant-caps:normal;font-variant-numeric:normal;font-feature-settings:normal;text-align:center;writing-mode:lr-tb;text-anchor:middle;stroke-width:0.26458332px"
             y="196.14803"
             x="49.678513"
             sodipodi:role="line"
             id="tspan1015">Entity Types</tspan></text>
      </g>
    </g>
    <g
       id="g1107">
      <g
         id="g1088">
        <rect
           ry="2.7240984"
           y="171.79269"
           x="125.88236"
           height="33.296322"
           width="137.29633"
           id="rect1139"
           style="color:#000000;clip-rule:nonzero;display:inline;overflow:visible;visibility:visible;opacity:1;isolation:auto;mix-blend-mode:normal;color-interpolation:sRGB;color-interpolation-filters:linearRGB;solid-color:#000000;solid-opacity:1;vector-effect:none;fill:#c8e1c8;fill-opacity:1;fill-rule:evenodd;stroke:#000000;stroke-width:0.70367658;stroke-linecap:butt;stroke-linejoin:miter;stroke-miterlimit:4;stroke-dasharray:none;stroke-dashoffset:0;stroke-opacity:1;color-rendering:auto;image-rendering:auto;shape-rendering:auto;text-rendering:auto;enable-background:accumulate" />
        <text
           id="text1147"
           y="177.50699"
           x="132.80325"
           style="font-style:normal;font-weight:normal;font-size:4.63020849px;line-height:125%;font-family:sans-serif;letter-spacing:0px;word-spacing:0px;fill:#000000;fill-opacity:1;stroke:none;stroke-width:0.26458332px;stroke-linecap:butt;stroke-linejoin:miter;stroke-opacity:1"
           xml:space="preserve"><tspan
             id="tspan1143"
             style="stroke-width:0.26458332px"
             y="177.50699"
             x="132.80325"
             sodipodi:role="line">templates for <tspan
   style="font-weight:bold"
   id="tspan924">versioned</tspan> entities in:</tspan><tspan
             id="tspan1145"
             style="stroke-width:0.26458332px"
             y="183.29475"
             x="132.80325"
             sodipodi:role="line">templates/&lt;entity_type&gt;/&lt;entity_name&gt;</tspan><tspan
             style="stroke-width:0.26458332px"
             y="189.0825"
             x="132.80325"
             sodipodi:role="line"
             id="tspan922" /><tspan
             style="stroke-width:0.26458332px"
             y="194.87027"
             x="132.80325"
             sodipodi:role="line"
             id="tspan918">templates for <tspan
   style="font-weight:bold"
   id="tspan926">unversioned</tspan> entities in:</tspan><tspan
             style="stroke-width:0.26458332px"
             y="200.65804"
             x="132.80325"
             sodipodi:role="line"
             id="tspan920">unversioned-templates/&lt;entity_type&gt;/&lt;entity_name&gt;</tspan></text>
      </g>
      <g
         id="g1077">
        <rect
           style="color:#000000;clip-rule:nonzero;display:inline;overflow:visible;visibility:visible;opacity:1;isolation:auto;mix-blend-mode:normal;color-interpolation:sRGB;color-interpolation-filters:linearRGB;solid-color:#000000;solid-opacity:1;vector-effect:none;fill:#a7c2db;fill-opacity:1;fill-rule:evenodd;stroke:#000000;stroke-width:0.7077052;stroke-linecap:butt;stroke-linejoin:miter;stroke-miterlimit:4;stroke-dasharray:none;stroke-dashoffset:0;stroke-opacity:1;color-rendering:auto;image-rendering:auto;shape-rendering:auto;text-rendering:auto;enable-background:accumulate"
           id="rect1062-3"
           width="136.91151"
           height="32.911507"
           x="125.88438"
           y="138.59058"
           ry="2.6926153" />
        <text
           xml:space="preserve"
           style="font-style:normal;font-variant:normal;font-weight:bold;font-stretch:normal;font-size:4.63020849px;line-height:125%;font-family:sans-serif;-inkscape-font-specification:'sans-serif, Bold';font-variant-ligatures:normal;font-variant-caps:normal;font-variant-numeric:normal;font-feature-settings:normal;text-align:center;letter-spacing:0px;word-spacing:0px;writing-mode:lr-tb;text-anchor:middle;fill:#000000;fill-opacity:1;stroke:none;stroke-width:0.26458332px;stroke-linecap:butt;stroke-linejoin:miter;stroke-opacity:1"
           x="195.23486"
           y="149.33342"
           id="text819-3"><tspan
             id="tspan951-7"
             sodipodi:role="line"
             x="195.23486"
             y="149.33342"
             style="font-style:normal;font-variant:normal;font-weight:bold;font-stretch:normal;font-size:4.63020849px;font-family:sans-serif;-inkscape-font-specification:'sans-serif, Bold';font-variant-ligatures:normal;font-variant-caps:normal;font-variant-numeric:normal;font-feature-settings:normal;text-align:center;writing-mode:lr-tb;text-anchor:middle;stroke-width:0.26458332px">Project Entities</tspan></text>
        <text
           id="text882"
           y="159.20033"
           x="195.30766"
           style="font-style:normal;font-weight:normal;font-size:2.72649646px;line-height:125%;font-family:sans-serif;letter-spacing:0px;word-spacing:0px;fill:#000000;fill-opacity:1;stroke:none;stroke-width:0.15579979px;stroke-linecap:butt;stroke-linejoin:miter;stroke-opacity:1"
           xml:space="preserve"><tspan
             style="font-style:normal;font-variant:normal;font-weight:normal;font-stretch:normal;font-size:4.23333311px;font-family:sans-serif;-inkscape-font-specification:'sans-serif, Normal';font-variant-ligatures:normal;font-variant-caps:normal;font-variant-numeric:normal;font-feature-settings:normal;text-align:center;writing-mode:lr-tb;text-anchor:middle;stroke-width:0.15579979px"
             y="159.20033"
             x="195.98152"
             id="tspan880"
             sodipodi:role="line">Stored in </tspan><tspan
             id="tspan884"
             style="font-style:normal;font-variant:normal;font-weight:normal;font-stretch:normal;font-size:4.23333311px;font-family:sans-serif;-inkscape-font-specification:'sans-serif, Normal';font-variant-ligatures:normal;font-variant-caps:normal;font-variant-numeric:normal;font-feature-settings:normal;text-align:center;writing-mode:lr-tb;text-anchor:middle;stroke-width:0.15579979px"
             y="162.99988"
             x="195.30766"
             sodipodi:role="line">.ps_project/entities/&lt;entity_type&gt;/&lt;entity_name&gt;.yaml</tspan></text>
      </g>
    </g>
    <g
       id="g1069"
       transform="translate(-1.0213384,-111.88095)">
      <g
         id="g1056">
        <rect
           ry="1.7865629"
           y="315.04086"
           x="7.0617967"
           height="21.836939"
           width="87.226822"
           id="rect933-7"
           style="color:#000000;clip-rule:nonzero;display:inline;overflow:visible;visibility:visible;opacity:1;isolation:auto;mix-blend-mode:normal;color-interpolation:sRGB;color-interpolation-filters:linearRGB;solid-color:#000000;solid-opacity:1;vector-effect:none;fill:#c8e1c8;fill-opacity:1;fill-rule:evenodd;stroke:#000000;stroke-width:0.7077052;stroke-linecap:butt;stroke-linejoin:miter;stroke-miterlimit:4;stroke-dasharray:none;stroke-dashoffset:0;stroke-opacity:1;color-rendering:auto;image-rendering:auto;shape-rendering:auto;text-rendering:auto;enable-background:accumulate" />
        <text
           id="text937-8"
           y="321.38452"
           x="13.17459"
           style="font-style:normal;font-weight:normal;font-size:4.63020849px;line-height:125%;font-family:sans-serif;letter-spacing:0px;word-spacing:0px;fill:#000000;fill-opacity:1;stroke:none;stroke-width:0.26458332px;stroke-linecap:butt;stroke-linejoin:miter;stroke-opacity:1"
           xml:space="preserve"><tspan
             id="tspan941-5"
             style="stroke-width:0.26458332px"
             y="321.38452"
             x="13.17459"
             sodipodi:role="line">templates-templates</tspan><tspan
             id="tspan1009-3"
             style="stroke-width:0.26458332px"
             y="327.17227"
             x="13.17459"
             sodipodi:role="line">within plugins. Path is </tspan><tspan
             style="stroke-width:0.26458332px"
             y="332.96005"
             x="13.17459"
             sodipodi:role="line"
             id="tspan1043">customizable (see plugins doc)</tspan></text>
      </g>
      <g
         id="g1049">
        <rect
           style="color:#000000;clip-rule:nonzero;display:inline;overflow:visible;visibility:visible;opacity:1;isolation:auto;mix-blend-mode:normal;color-interpolation:sRGB;color-interpolation-filters:linearRGB;solid-color:#000000;solid-opacity:1;vector-effect:none;fill:#a7c2db;fill-opacity:1;fill-rule:evenodd;stroke:#000000;stroke-width:0.7077052;stroke-linecap:butt;stroke-linejoin:miter;stroke-miterlimit:4;stroke-dasharray:none;stroke-dashoffset:0;stroke-opacity:1;color-rendering:auto;image-rendering:auto;shape-rendering:auto;text-rendering:auto;enable-background:accumulate"
           id="rect1058-8"
           width="87.226822"
           height="21.836939"
           x="7.0617967"
           y="293.20392"
           ry="1.7865629" />
        <text
           id="text1017-3"
           y="302.48779"
           x="50.614166"
           style="font-style:normal;font-variant:normal;font-weight:bold;font-stretch:normal;font-size:4.63020849px;line-height:125%;font-family:sans-serif;-inkscape-font-specification:'sans-serif, Bold';font-variant-ligatures:normal;font-variant-caps:normal;font-variant-numeric:normal;font-feature-settings:normal;text-align:center;letter-spacing:0px;word-spacing:0px;writing-mode:lr-tb;text-anchor:middle;fill:#000000;fill-opacity:1;stroke:none;stroke-width:0.26458332px;stroke-linecap:butt;stroke-linejoin:miter;stroke-opacity:1"
           xml:space="preserve"><tspan
             id="tspan1013-7"
             style="font-style:normal;font-variant:normal;font-weight:bold;font-stretch:normal;font-size:4.63020849px;font-family:sans-serif;-inkscape-font-specification:'sans-serif, Bold';font-variant-ligatures:normal;font-variant-caps:normal;font-variant-numeric:normal;font-feature-settings:normal;text-align:center;writing-mode:lr-tb;text-anchor:middle;stroke-width:0.26458332px"
             y="302.48779"
             x="50.614166"
             sodipodi:role="line">Plugins</tspan><tspan
             style="font-style:normal;font-variant:normal;font-weight:bold;font-stretch:normal;font-size:4.63020849px;font-family:sans-serif;-inkscape-font-specification:'sans-serif, Bold';font-variant-ligatures:normal;font-variant-caps:normal;font-variant-numeric:normal;font-feature-settings:normal;text-align:center;writing-mode:lr-tb;text-anchor:middle;stroke-width:0.26458332px"
             y="308.27554"
             x="50.614166"
             sodipodi:role="line"
             id="tspan1015-9">Entity Types</tspan></text>
      </g>
    </g>
  </g>
</svg>
